{
    "loginemail": "foxdenedm@gmail.com",
    "loginpassword": "Callie69!!",
    "version": "0.1.34 BETA",
    "userid": 3609549,
    "steamkey": "756E9C1DB1F67ED3E131F707D5645B20",
    "translatorkey": "64c69f3cd17a40c1962ef8c6fe6a3e5d",
    "autowoot": true,
    "timeguard": true,
    "commandCooldown": 5,
    "togglelotto": false,
    "adtoggle": true,
    "welcomes": true,
    "magneticeyes": false,
    "historyToggle": true,
    "motds": false,
    "urbandictionary": false

}